{
"name": "Learn Node.js with Pet Wars",
"description": "Part 2 of a 2 TypeScript game coding series. A card game implementation in for a browser. See React and Node.js used in a more fun way.",
"image": "https://tribecoders.com/petwars/pet_wars_server.jpeg",
"keywords": ["Node.js","TypeScript"],
"source": "./app",
"chapters": [{
    "chapter": "Node.js server",
    "branch": "init",
    "file": "chapter00"
  },{
    "chapter": "API",
    "branch": "server",
    "file": "chapter01"
  },{
    "chapter": "Socket IO rooms",
    "branch": "rooms",
    "file": "chapter02"
  },{
    "chapter": "Inversify factories",
    "branch": "hand",
    "file": "chapter03"
  },{
    "chapter": "Two way communication",
    "branch": "play",
    "file": "chapter04"
  },{
    "chapter": "Game logic",
    "branch": "fight",
    "file": "chapter05"
  }]
}